{
  "images" : [
    {
      "idiom" : "universal",
      "filename" : "logo_with_text.pdf"
    }
  ],
  "info" : {
    "version" : 1,
    "author" : "xcode"
  },
  "properties" : {
    "template-rendering-intent" : "original",
    "preserves-vector-representation" : true
  }
}