{
  "type": "service_account",
  "project_id": "riskpointer-sdk-example",
  "private_key_id": "cd493175fc121e6e185a9875c5bf155a6f31dea4",
  "private_key": "-----BEGIN PRIVATE KEY-----\nMIIEvgIBADANBgkqhkiG9w0BAQEFAASCBKgwggSkAgEAAoIBAQDSpftgzR4rIm0H\n5c3JHM59qiWsuykjGjSHRHM/jYCtpeT3tTua5XcSRwobn80w3v4fPVLo4s4EWtR3\n843y7/3cCdGLsQUoQbU4+N4kxjbRis3eAJWlRLSL8505IkzmnV/jXeGdXqSVHmIX\n2lalKBJp1yeWScGvQF5ZCnE927OFM7cUJO73AXQWzXHbTxrMz1BHGe7YOkR6gNzZ\ng7Up+KM2GkgUyDNXTFFMEn/jO8KVNc9VLJWKk0yc77KdJseuVwQaL550phqurrPj\n+7ok50W6lV84RfcE3oFT8jcqpZnXut0vcy85WDNrJ+3JDUYf0KfwE0jITgLBxmAw\np36iXQ2rAgMBAAECggEABy41RXV4g8vmn5BL1YEv4MS+CAdRPasVA09oBlCShFjV\nV0RMRdlwl6ToSUzHN9VCIFp8yweAMlHOUFBzFEbuBmQnSnW8UUT8IncJS4OeNsJe\nhiTK9RlEdkjVoS70JCBVNnDq0ex5+8NPYLTGo1acWhNFfDADdC/jh3F9rrgghHfQ\n/tLIm4LjnYB8O4MHsyqa6595YpeXwwB20vOrv1SzogI+XgcRt3bWMyQKKymW0ZSf\n2ub5v7axNcDSqqVg98TwgWvotJfS046lf07LyStFNcylZJp9+ZHQ+ANseUAOvtZH\ndu1C9LbM+qxXgqPe616z8PtZ9vBcpGD9Ed9zPjYUsQKBgQDpXEzZe58r+xxBV430\nSMz/8tkTsGNdwl53N2xIAraKtTmy3DOniTX6XQ/o1jbH/NVHhlCwuVP3yqg0JKEn\nmhCqYwpPtsp8shIW2BB/5DoSQAQbAJ3EVOG7W2o/eMwAxQBsAnjOLXzijWn6Brdj\nOKTim+gEgnVR9u4egd7MtYB3RQKBgQDnFZsvk0bhKL6DQDq1gTlO7Yh5vogFXKnd\nkGM0414s0cs5vrfetYBC/0E8nTRsIxkW37k2VA/IvPYVy0CvTZTt9PpvdSVAjNRp\n8YdoF/1fXBouwo52hOyrLPg2ag3aSdgznadtbNR5uLEYxk10+ydEGrl7eSWEBC7z\nqTlTiikILwKBgQCzkJd93hcr44zpZrLPn1lHNZn+AYNkeRTxjU8f1h6aezrLu49v\nwjAr14JPes4qcw22fM8IPYM0L9fgT7NF4tIiGhWsIw6KhwdOVrHTh018D5BZKs87\nbMlJvtzxvETV7sEVW42TsQLg3UoH3zUr/0E5MhiFp9EY4fZ2uR40zRDuNQKBgQDJ\nkIodlHx198E94S+UlJQ1aXHqp6wj6TDt53zxbAYAWDrJMrdVlsG7LsVrpsBMNs0y\nq5D1d5uRAGoylmjkwGpQqagswmTtCipaAuiWfp5uqHraILB9ZvK9WOtlI1rT9ieU\n1kZtZ0lqpxQqxQZZLJ2ShTEXJ5P2tGNz/D7ZxKCH1wKBgCDWUjuuDNDJUo21Dyo7\nMWUqHJNG+VFhTeiIEQNdpkwopANlIvR57jdnjMjoB9yUwfFACvC8nsT8ZDTxi+j3\nQap1EW6vd4vBCCwdTHhhvLPbXIzhvlgQhRZdXMLmKU+DZ8xOK5oFfptxPIwHs0Ya\nElUUOhs6L2R02D46ldu66uAP\n-----END PRIVATE KEY-----\n",
  "client_email": "service-account@riskpointer-sdk-example.iam.gserviceaccount.com",
  "client_id": "116636020463549752913",
  "auth_uri": "https://accounts.google.com/o/oauth2/auth",
  "token_uri": "https://accounts.google.com/o/oauth2/token",
  "auth_provider_x509_cert_url": "https://www.googleapis.com/oauth2/v1/certs",
  "client_x509_cert_url": "https://www.googleapis.com/robot/v1/metadata/x509/service-account%40riskpointer-sdk-example.iam.gserviceaccount.com"
}
